<?xml version="1.0" encoding="UTF-8" standalone="no"?>
<svg
   xmlns:dc="http://purl.org/dc/elements/1.1/"
   xmlns:cc="http://creativecommons.org/ns#"
   xmlns:rdf="http://www.w3.org/1999/02/22-rdf-syntax-ns#"
   xmlns:svg="http://www.w3.org/2000/svg"
   xmlns="http://www.w3.org/2000/svg"
   xmlns:sodipodi="http://sodipodi.sourceforge.net/DTD/sodipodi-0.dtd"
   xmlns:inkscape="http://www.inkscape.org/namespaces/inkscape"
   sodipodi:docname="PROJET Pong.svg"
   inkscape:version="1.0 (4035a4fb49, 2020-05-01)"
   id="svg8"
   version="1.1"
   viewBox="0 0 297 210"
   height="210mm"
   width="297mm">
  <defs
     id="defs2">
    <rect
       id="rect859"
       height="16.118044"
       width="58.861697"
       y="201.69953"
       x="34.192161" />
    <filter
       height="1.0080004"
       y="-0.0040002205"
       width="1.011999"
       x="-0.005999504"
       id="filter873"
       style="color-interpolation-filters:sRGB"
       inkscape:collect="always">
      <feGaussianBlur
         id="feGaussianBlur875"
         stdDeviation="0.052224957"
         inkscape:collect="always" />
    </filter>
  </defs>
  <sodipodi:namedview
     inkscape:document-rotation="0"
     inkscape:window-maximized="1"
     inkscape:window-y="0"
     inkscape:window-x="0"
     inkscape:window-height="983"
     inkscape:window-width="1920"
     showguides="true"
     showgrid="false"
     inkscape:current-layer="layer1"
     inkscape:document-units="mm"
     inkscape:cy="473.32661"
     inkscape:cx="310.8986"
     inkscape:zoom="0.69336413"
     inkscape:pageshadow="2"
     inkscape:pageopacity="0.0"
     borderopacity="1.0"
     bordercolor="#666666"
     pagecolor="#ffffff"
     id="base" />
  <metadata
     id="metadata5">
    <rdf:RDF>
      <cc:Work
         rdf:about="">
        <dc:format>image/svg+xml</dc:format>
        <dc:type
           rdf:resource="http://purl.org/dc/dcmitype/StillImage" />
        <dc:title />
      </cc:Work>
    </rdf:RDF>
  </metadata>
  <g
     transform="translate(0,-87)"
     id="layer1"
     inkscape:label="Calque 1">
    <g
       style="font-style:normal;font-weight:normal;font-size:20.1849px;line-height:1.25;font-family:sans-serif;letter-spacing:0px;word-spacing:0px;fill:#000000;fill-opacity:1;stroke:none;stroke-width:0.504623"
       id="text843"
       transform="matrix(1.4192584,0,0,1.4204414,-38.995372,-47.729658)"
       aria-label="MINI PONG !">
      <g
         style="font-style:normal;font-weight:normal;font-size:18.0945px;line-height:1.25;font-family:sans-serif;letter-spacing:0px;word-spacing:0px;fill:#000000;fill-opacity:1;stroke:none;stroke-width:0.228273"
         id="text877"
         aria-label="MINI PONG !" />
    </g>
    <circle
       r="4.9504952"
       style="fill:none;stroke:#ff0000;stroke-width:0.5;stroke-miterlimit:4;stroke-dasharray:none;stroke-opacity:1"
       cy="150.12518"
       cx="79.908836"
       id="path4526"
       inkscape:label="led verte" />
    <circle
       r="4.9504952"
       id="circle4530"
       cx="217.09117"
       cy="150.12518"
       style="fill:none;stroke:#ff0000;stroke-width:0.5;stroke-miterlimit:4;stroke-dasharray:none;stroke-opacity:1"
       inkscape:label="led jaune" />
    <circle
       inkscape:label="trou_buzzer"
       id="circle4532"
       cx="148.5"
       cy="277.74951"
       style="fill:none;fill-opacity:1;stroke:#ff0000;stroke-width:0.572061;stroke-miterlimit:4;stroke-dasharray:none;stroke-opacity:1"
       r="5.6639695" />
    <ellipse
       cy="210.55"
       cx="128.05"
       id="path4534"
       style="fill:none;fill-opacity:1;stroke:#ff0000;stroke-width:0.516909;stroke-miterlimit:4;stroke-dasharray:none;stroke-opacity:1"
       rx="1.4915451"
       ry="1.4915453" />
    <ellipse
       style="fill:none;fill-opacity:1;stroke:#ff0000;stroke-width:0.516909;stroke-miterlimit:4;stroke-dasharray:none;stroke-opacity:1"
       id="circle4536"
       cx="168.05"
       cy="210.55"
       rx="1.4915453"
       ry="1.4915452" />
    <ellipse
       cy="170.55025"
       cx="168.05"
       id="circle4538"
       style="fill:none;fill-opacity:1;stroke:#ff0000;stroke-width:0.51478;stroke-miterlimit:4;stroke-dasharray:none;stroke-opacity:1"
       rx="1.4926103"
       ry="1.4926101" />
    <ellipse
       style="fill:none;fill-opacity:1;stroke:#ff0000;stroke-width:0.516909;stroke-miterlimit:4;stroke-dasharray:none;stroke-opacity:1"
       id="circle4540"
       cx="128.05011"
       cy="170.55725"
       rx="1.4915452"
       ry="1.4915453" />
    <rect
       y="172.71573"
       x="131.31471"
       height="7.4664645"
       width="33.466465"
       id="rect4558"
       style="fill:none;fill-opacity:1;stroke:#ff0000;stroke-width:0.533535;stroke-miterlimit:4;stroke-dasharray:none;stroke-opacity:1"
       inkscape:label="trou pin" />
    <path
       transform="matrix(0.26458333,0,0,0.26458333,0,87)"
       id="path959"
       d="m 655.16406,24.664065 c 0.42377,0.006 0.85155,0.02196 1.28516,0.04883 6.93772,0.429835 12.26609,3.359017 15.98242,8.785156 3.74788,5.428117 5.34544,12.60721 4.79297,21.539062 -0.55053,8.900309 -3.02005,15.812284 -7.4082,20.736329 -4.35669,4.925959 -10.00371,7.173973 -16.94141,6.74414 -6.93773,-0.429858 -12.2968,-3.359015 -16.07617,-8.789062 -3.74788,-5.428082 -5.34738,-12.591879 -4.79688,-21.492188 0.55247,-8.931878 3.02393,-15.86115 7.41211,-20.785156 4.1435,-4.614447 9.39345,-6.87649 15.75,-6.787111 z"
       style="fill:none;fill-rule:evenodd;stroke:#ff0000;stroke-width:1.88976;stroke-linecap:butt;stroke-linejoin:miter;stroke-miterlimit:4;stroke-dasharray:none;stroke-opacity:1" />
    <path
       transform="matrix(0.26458333,0,0,0.26458333,0,87)"
       id="path957"
       d="m 585.92773,24.347659 c 4.45445,-0.06717 7.91549,1.035213 10.38282,3.306641 2.46737,2.271453 3.73312,5.524893 3.79687,9.761719 0.0642,4.268465 -1.10217,7.575098 -3.5,9.919922 -2.39783,2.344692 -5.82289,3.549911 -10.27734,3.617187 L 574.29297,51.134769 573.89258,24.5293 Z"
       style="fill:none;fill-rule:evenodd;stroke:#ff0000;stroke-width:1.88976;stroke-linecap:butt;stroke-linejoin:miter;stroke-miterlimit:4;stroke-dasharray:none;stroke-opacity:1" />
    <path
       transform="matrix(0.26458333,0,0,0.26458333,0,87)"
       id="path955"
       d="m 441.82422,91.650394 -7.70899,-49.429688 34.2168,45.78125 c -8.80601,1.106523 -17.64407,2.317098 -26.50781,3.648438 z"
       style="fill:none;fill-rule:evenodd;stroke:#ff0000;stroke-width:1.88976;stroke-linecap:butt;stroke-linejoin:miter;stroke-miterlimit:4;stroke-dasharray:none;stroke-opacity:1" />
    <path
       transform="matrix(0.26458333,0,0,0.26458333,0,87)"
       id="path953"
       d="m 330.52539,113.81055 -12.69922,-47.695313 30.60397,43.075073 c -5.81203,1.68433 -11.88377,3.13231 -17.90475,4.62024 z"
       style="fill:none;fill-rule:evenodd;stroke:#ff0000;stroke-width:1.88976;stroke-linecap:butt;stroke-linejoin:miter;stroke-miterlimit:4;stroke-dasharray:none;stroke-opacity:1" />
    <path
       transform="matrix(0.26458333,0,0,0.26458333,0,87)"
       id="path951"
       d="m 357.14802,107.53768 5.23675,-53.305255 13.13476,49.332025 c -6.13233,1.27788 -12.25764,2.60276 -18.37151,3.97323 z"
       style="fill:none;fill-rule:evenodd;stroke:#ff0000;stroke-width:1.88976;stroke-linecap:butt;stroke-linejoin:miter;stroke-miterlimit:4;stroke-dasharray:none;stroke-opacity:1" />
    <path
       transform="matrix(0.26458333,0,0,0.26458333,0,87)"
       sodipodi:nodetypes="ccccccccscscsscccscsccccccccccscscscsccccsccccccccccccccccccccccccccccssccccc"
       id="path949"
       d="m 820.77344,112.19727 c 3.05118,-0.56799 5.99615,-1.44903 8.82812,-2.66211 l 6.41016,-29.720707 -24.55274,-5.304687 -1.66015,7.697265 15.28711,3.302735 -4.00977,18.591794 c -2.32925,0.76007 -4.85529,1.15254 -7.57617,1.17774 -2.71428,-0.004 -5.72275,-0.36222 -9.02734,-1.07618 -8.46224,-1.8282 -14.31467,-5.566801 -17.55664,-11.216792 -3.21112,-5.643288 -3.81026,-13.132019 -1.79688,-22.466797 2.02003,-9.365669 5.65705,-15.956404 10.9082,-19.771484 5.28202,-3.808423 12.153,-4.798926 20.61524,-2.970703 4.29286,0.927476 8.22547,2.552569 11.79687,4.876953 3.5714,2.324384 6.77006,5.329943 9.59571,9.013672 l 2.15039,-9.96875 c -2.96146,-2.904295 -6.36059,-5.354152 -10.19727,-7.347657 -3.80581,-1.986844 -7.96355,-3.467255 -12.47266,-4.441406 -10.80942,-2.33534 -19.95579,-0.995849 -27.4375,4.019532 -7.44418,4.991138 -12.38608,13.144023 -14.82617,24.457031 -2.43338,11.282066 -1.2917,20.749417 3.42578,28.40039 l 6.3418,7.220701 c -10.54011,-2.24604 -21.09027,-4.346919 -31.61523,-6.296872 l 9.65039,-67.449219 -9.19531,-1.31836 -8.39063,58.646485 -22.66602,-63.097656 -12.76171,-1.828126 -9.51563,66.509766 c -9.60027,-1.317872 -19.12212,-2.493357 -26.15625,-5.442383 8.72525,-8.211102 12.24055,-16.92817 12.92969,-28.069336 0.69107,-11.172719 -1.72157,-20.256778 -7.24024,-27.251953 -5.51667,-7.026771 -13.22689,-10.847447 -23.1289,-11.460937 -9.93353,-0.615446 -18.08696,2.221539 -24.45899,8.511719 -6.33854,6.260585 -9.85189,14.977698 -10.54297,26.15039 -0.69107,11.172737 1.95095,20.740824 8.9774,29.372743 -11.38352,0.786148 -24.21318,-0.243996 -36.42075,-0.450868 -6.51582,-0.110417 -13.10333,-0.129088 -19.75,-0.06445 l -0.32422,-21.46094 12.03711,-0.18164 c 7.92955,-0.119559 13.88893,-1.995067 17.8789,-5.628906 4.02142,-3.634316 5.98007,-8.945971 5.875,-15.933594 -0.10424,-6.924384 -2.2205,-12.142899 -6.34961,-15.654297 -4.09801,-3.543499 -10.11144,-5.25435 -18.04101,-5.134766 l -21.60938,0.326172 0.96094,63.818362 c -16.50836,0.361123 -33.36883,1.240262 -50.4707,2.59961 l -6.25977,-62.556641 -9.52734,0.955079 6.24609,62.40625 c -6.4411,0.575905 -12.91498,1.224185 -19.41211,1.93164 l -9.67187,-62.001953 -9.17774,1.433594 9.13086,58.535156 -40.13086,-53.691406 -12.73633,1.990234 9.49219,60.849609 c -6.42628,1.018411 -12.86238,2.098024 -19.30078,3.228516 l -12.47656,-59.386719 -9.36914,1.970703 12.41992,59.111329 c -6.41306,1.178913 -12.63494,2.373205 -19.04398,3.658185 l -15.68844,-58.167954 -13.78321,3.675781 -5.14257,51.246094 -29.84571,-41.914062 -13.78515,3.675781 14.88476,55.90625 C 191.79434,149.14821 71.527,201.8332 7.1835938,259.45898 l 1.6347656,525.42383 c 0.00253,0.8143 0.6564319,1.46875 1.4707026,1.46875 H 1114.1211 c 0.8143,0 1.4661,-0.65445 1.4687,-1.46875 l 1.9258,-525.42383 C 1082.8402,208.98899 993.31202,163.67658 889.46094,131.26367 l -8.28711,-2.47754 c -20.37273,-6.23574 -40.2899,-11.6618 -60.40039,-16.58886 z"
       style="fill:none;fill-rule:evenodd;stroke:#ff0000;stroke-width:1.88976;stroke-linecap:butt;stroke-linejoin:miter;stroke-miterlimit:4;stroke-dasharray:none;stroke-opacity:1" />
    <path
       transform="matrix(0.26458333,0,0,0.26458333,0,87)"
       id="rect823"
       d="m 709.72266,90.476562 7.875,-55.037109 21.45117,59.708985 c -9.82379,-1.694897 -19.60737,-3.254011 -29.32617,-4.671876 z"
       style="fill:none;fill-rule:evenodd;stroke:#ff0000;stroke-width:1.88976;stroke-linecap:butt;stroke-linejoin:miter;stroke-miterlimit:4;stroke-dasharray:none;stroke-opacity:1" />
    <path
       inkscape:connector-curvature="0"
       id="path895-3"
       d="m 279.11809,290.69998 c -0.12306,-0.0292 -0.22366,-0.10448 -0.2849,-0.21315 -0.0485,-0.086 -0.0521,-0.12022 -0.0591,-0.56046 -0.008,-0.51373 -10e-4,-0.54468 0.11929,-0.51395 l 0.0563,0.0144 5e-5,0.44999 c 4e-5,0.51765 0.0154,0.5783 0.16467,0.6525 0.0725,0.036 0.0996,0.0388 0.16946,0.0175 0.0458,-0.014 0.10783,-0.052 0.13791,-0.0845 0.0536,-0.058 0.0549,-0.0691 0.0659,-0.53961 0.01,-0.42522 0.0157,-0.48332 0.0504,-0.50555 0.0286,-0.0183 0.0499,-0.0183 0.0785,2.3e-4 0.0354,0.0228 0.0392,0.0734 0.0392,0.51475 v 0.48953 l -0.0617,0.0948 c -0.099,0.15213 -0.29332,0.22714 -0.47603,0.18375 z m 1.55762,0.004 c -0.18649,-0.0377 -0.31571,-0.16216 -0.35684,-0.34375 -0.0127,-0.0562 -0.0231,-0.19454 -0.0231,-0.30743 0,-0.35592 0.0638,-0.50962 0.25238,-0.60839 0.0735,-0.0385 0.13054,-0.0487 0.26209,-0.0468 0.24018,0.003 0.30262,0.0261 0.30262,0.10943 0,0.0601 -0.007,0.0663 -0.0673,0.0619 -0.30132,-0.0219 -0.36677,-0.0174 -0.42964,0.0293 -0.11343,0.0844 -0.1419,0.17553 -0.1419,0.45451 0,0.27882 0.0284,0.37001 0.14171,0.45451 0.0625,0.0466 0.13648,0.0517 0.42983,0.0295 0.0605,-0.005 0.0673,0.002 0.0673,0.0617 0,0.052 -0.0124,0.0701 -0.056,0.0819 -0.10162,0.0274 -0.30127,0.0397 -0.38107,0.0236 z m 3.78829,0 c -0.18732,-0.0379 -0.31278,-0.15937 -0.35941,-0.34813 -0.0414,-0.16749 -0.0202,-0.60075 0.0349,-0.71211 0.0987,-0.19968 0.3093,-0.28515 0.59083,-0.23973 0.17566,0.0283 0.22099,0.0616 0.18282,0.13416 -0.0234,0.0445 -0.0365,0.0476 -0.13108,0.0312 -0.18322,-0.0319 -0.30951,-0.0222 -0.37819,0.0291 -0.11307,0.0844 -0.1415,0.17568 -0.1415,0.45438 0,0.27749 0.0285,0.37008 0.13946,0.45283 0.0645,0.0481 0.22189,0.0625 0.33681,0.0308 0.0606,-0.0167 0.0616,-0.02 0.0616,-0.19616 v -0.17917 l -0.0673,-0.0137 c -0.0525,-0.0107 -0.0673,-0.0258 -0.0673,-0.0688 0,-0.0632 0.0367,-0.083 0.15314,-0.0825 0.13859,5.3e-4 0.14029,0.005 0.13334,0.34346 l -0.006,0.30605 -0.0785,0.0254 c -0.10941,0.0354 -0.31005,0.0518 -0.40349,0.0329 z m 4.06135,-0.004 c -0.14734,-0.0245 -0.2058,-0.0549 -0.2058,-0.10721 0,-0.0777 0.0385,-0.0885 0.19669,-0.0552 0.19053,0.0402 0.30238,0.0132 0.35237,-0.0852 0.0748,-0.1471 0.0186,-0.2319 -0.24679,-0.37296 -0.21127,-0.11229 -0.27986,-0.19837 -0.27986,-0.35126 0,-0.20633 0.15196,-0.33456 0.39374,-0.33224 0.24174,0.002 0.34425,0.0622 0.28083,0.16409 -0.0164,0.0263 -0.0437,0.0269 -0.16409,0.004 -0.17972,-0.0345 -0.29772,0.003 -0.32236,0.10315 -0.0286,0.11585 0.0132,0.17437 0.19416,0.27199 0.2278,0.12288 0.2625,0.15085 0.3136,0.25284 0.0548,0.10938 0.0549,0.19918 2.3e-4,0.32168 -0.07,0.15693 -0.26461,0.22768 -0.5127,0.18644 z m -20.32972,-0.012 c -0.0215,-0.009 -0.028,-0.15742 -0.028,-0.63435 0,-0.5469 0.004,-0.62452 0.0355,-0.63668 0.0541,-0.0211 0.57685,-0.0158 0.61096,0.006 0.0165,0.0106 0.0266,0.0438 0.0224,0.0738 -0.007,0.0527 -0.0147,0.0547 -0.23047,0.061 -0.12259,0.004 -0.23607,0.0177 -0.25218,0.0313 -0.0303,0.0256 -0.0417,0.27898 -0.0157,0.34797 0.0109,0.0289 0.0509,0.0361 0.20245,0.0361 0.15415,0 0.19143,0.007 0.20291,0.0373 0.0304,0.0806 -0.0231,0.11043 -0.21954,0.12233 l -0.18821,0.0114 -0.006,0.26142 c -0.007,0.2873 -0.0256,0.3266 -0.13372,0.28223 z m 1.10206,-0.016 c -0.006,-0.0171 0.0728,-0.3019 0.17613,-0.63289 0.17269,-0.55323 0.19261,-0.60351 0.24689,-0.62298 0.13277,-0.0476 0.14618,-0.0234 0.35058,0.63456 0.2006,0.6457 0.20544,0.68611 0.0765,0.63973 -0.0467,-0.0168 -0.0702,-0.0518 -0.10659,-0.15889 -0.0257,-0.0755 -0.0549,-0.14995 -0.0648,-0.16535 -0.0251,-0.0388 -0.38299,-0.0384 -0.41327,5.3e-4 -0.0122,0.0157 -0.0398,0.085 -0.0613,0.15395 -0.0215,0.069 -0.055,0.13826 -0.0745,0.15394 -0.0468,0.0377 -0.11493,0.0363 -0.1296,-0.003 z m 0.61802,-0.52192 c -5.3e-4,-0.0785 -0.1201,-0.45396 -0.14447,-0.45366 -0.0245,2.6e-4 -0.14545,0.37576 -0.14614,0.45366 -4.2e-4,0.048 0.009,0.0513 0.14525,0.0513 0.13626,0 0.14568,-0.003 0.14536,-0.0513 z m 0.96983,0.53959 c -0.0214,-0.01 -0.028,-0.16031 -0.028,-0.63798 v -0.62485 l 0.0589,-0.015 c 0.098,-0.025 0.44792,0.008 0.53586,0.0502 0.18459,0.0891 0.23107,0.32539 0.0979,0.49764 l -0.0464,0.0601 0.0672,0.0639 c 0.081,0.077 0.12343,0.21701 0.0956,0.31566 -0.058,0.20569 -0.18818,0.27895 -0.5215,0.29343 -0.12733,0.005 -0.24411,0.004 -0.25952,-0.003 z m 0.52526,-0.20381 c 0.0766,-0.0511 0.10377,-0.13682 0.0732,-0.23113 -0.0347,-0.10686 -0.12271,-0.14838 -0.29672,-0.13992 l -0.13919,0.007 -0.007,0.18044 c -0.009,0.25225 -0.0103,0.25075 0.16713,0.23389 0.0816,-0.008 0.17255,-0.0303 0.20222,-0.05 z m -0.0321,-0.58058 c 0.0749,-0.0599 0.0935,-0.14358 0.0507,-0.22775 -0.0399,-0.0786 -0.15495,-0.12227 -0.29175,-0.11082 l -0.0897,0.008 -0.006,0.18815 -0.007,0.18815 h 0.14358 c 0.10926,0 0.1571,-0.0108 0.20013,-0.0452 z m 0.94141,0.78276 c -0.0215,-0.009 -0.028,-0.15741 -0.028,-0.63434 0,-0.55636 0.004,-0.62438 0.0368,-0.6372 0.0202,-0.008 0.0555,-0.008 0.0785,-8e-4 0.039,0.0126 0.0417,0.0469 0.0417,0.54332 0,0.3817 0.007,0.5375 0.0269,0.55722 0.0176,0.0179 0.11059,0.0274 0.26899,0.0274 h 0.2421 v 0.066 c 0,0.0391 -0.0144,0.0716 -0.0355,0.0798 -0.0421,0.0164 -0.59097,0.0153 -0.63142,-10e-4 z m 1.21106,-0.0134 c -0.0233,-0.0306 0.3232,-1.17392 0.37509,-1.23753 0.0295,-0.0362 0.12742,-0.0449 0.17305,-0.0154 0.0152,0.01 0.11389,0.2936 0.21938,0.63067 0.19595,0.62606 0.19966,0.65009 0.1005,0.65009 -0.0629,0 -0.0881,-0.0351 -0.13394,-0.18597 -0.0252,-0.0829 -0.0616,-0.15689 -0.081,-0.16447 -0.0457,-0.0179 -0.33125,-0.0179 -0.37696,0 -0.0196,0.008 -0.0553,0.0823 -0.0806,0.16872 -0.0253,0.0864 -0.0609,0.16105 -0.0806,0.16871 -0.0543,0.0212 -0.0912,0.0165 -0.11499,-0.0148 z m 0.6115,-0.50257 c 0.015,-0.0397 -0.11233,-0.45687 -0.14255,-0.46712 -0.028,-0.01 -0.17024,0.44052 -0.14988,0.47404 0.0209,0.0344 0.27916,0.0283 0.29243,-0.007 z m 0.95702,0.50619 c -0.021,-0.0223 -0.028,-0.18038 -0.028,-0.62687 0,-0.50705 0.005,-0.60137 0.0342,-0.62587 0.0542,-0.0458 0.4819,-0.0168 0.57594,0.0391 0.1706,0.10138 0.22157,0.29486 0.11842,0.44952 -0.068,0.10191 -0.0684,0.10919 -0.009,0.16393 0.17625,0.16229 0.1354,0.42761 -0.0849,0.55135 -0.0734,0.0412 -0.14127,0.0544 -0.33538,0.0652 -0.18526,0.0103 -0.24999,0.006 -0.27132,-0.0163 z m 0.44977,-0.15918 c 0.047,-0.0133 0.10504,-0.044 0.1289,-0.0683 0.0612,-0.0622 0.0565,-0.18569 -0.01,-0.26432 -0.0472,-0.0559 -0.0719,-0.0642 -0.21558,-0.0724 -0.12081,-0.007 -0.16721,-10e-4 -0.18169,0.0219 -0.0297,0.0477 -0.0244,0.3485 0.007,0.38017 0.0332,0.0338 0.1577,0.0351 0.27157,0.003 z m 0.0724,-0.62453 c 0.0735,-0.0748 0.0742,-0.19139 0.002,-0.2607 -0.0366,-0.035 -0.0925,-0.0551 -0.1789,-0.0641 -0.17161,-0.018 -0.1937,0.005 -0.1937,0.19736 0,0.0842 0.007,0.15989 0.0149,0.16825 0.008,0.008 0.0793,0.0152 0.15794,0.0152 0.12192,0 0.15109,-0.008 0.198,-0.056 z m 1.64886,0.78772 c -0.0256,-0.0165 -4e-5,-0.12097 0.14097,-0.57552 0.21458,-0.69167 0.2093,-0.67835 0.27591,-0.69536 0.12787,-0.0327 0.14116,-0.008 0.33964,0.62932 0.10235,0.32867 0.18059,0.61217 0.17387,0.63001 -0.0151,0.0401 -0.0825,0.0421 -0.13092,0.004 -0.0199,-0.0157 -0.0519,-0.0837 -0.0712,-0.15118 -0.0192,-0.0675 -0.0465,-0.13674 -0.0605,-0.15394 -0.034,-0.0417 -0.38569,-0.044 -0.4178,-0.003 -0.0122,0.0157 -0.04,0.085 -0.0618,0.15395 -0.0218,0.069 -0.0495,0.13826 -0.0618,0.15394 -0.0258,0.0331 -0.0817,0.0365 -0.12648,0.008 z m 0.61179,-0.49982 c 0.0169,-0.0279 -0.13045,-0.49494 -0.1546,-0.48999 -0.0244,0.005 -0.14456,0.38367 -0.14521,0.45763 -4.3e-4,0.0479 0.009,0.0513 0.14392,0.0513 0.0794,0 0.14956,-0.008 0.15589,-0.0189 z m 3.89388,0.48938 c -0.018,-0.0221 -0.0238,-0.20753 -0.0196,-0.6304 0.005,-0.54182 0.01,-0.60151 0.0452,-0.62427 0.0286,-0.0183 0.0499,-0.0183 0.0785,0 0.0328,0.021 0.0403,0.0665 0.0456,0.27927 l 0.006,0.25414 h 0.25631 0.25632 l 0.006,-0.25414 c 0.005,-0.2128 0.0127,-0.25823 0.0456,-0.27927 0.0286,-0.0183 0.0499,-0.0183 0.0785,0 0.0358,0.0229 0.0392,0.0791 0.0392,0.63598 0,0.55693 -0.003,0.61303 -0.0392,0.63598 -0.0285,0.0183 -0.0499,0.0183 -0.0785,0 -0.0326,-0.0209 -0.0411,-0.0707 -0.0504,-0.29636 l -0.0112,-0.27128 h -0.2465 -0.24657 l -0.006,0.26089 c -0.004,0.14438 -0.0173,0.27424 -0.0308,0.29078 -0.0317,0.0389 -0.0963,0.0382 -0.12861,-0.001 z m 3.8812,0.0162 c -0.0215,-0.009 -0.028,-0.15741 -0.028,-0.63435 0,-0.54691 0.004,-0.62452 0.0355,-0.63668 0.0195,-0.008 0.15486,-0.0138 0.30079,-0.0138 0.14593,0 0.28128,0.006 0.30078,0.0138 0.021,0.008 0.0355,0.0407 0.0355,0.0798 v 0.066 h -0.23089 c -0.14968,0 -0.24034,0.01 -0.25778,0.0274 -0.0297,0.0303 -0.0368,0.30912 -0.009,0.35368 0.0108,0.0173 0.0921,0.03 0.21796,0.0342 0.15738,0.005 0.20201,0.0141 0.20658,0.0409 0.0135,0.0794 -0.0336,0.10243 -0.2342,0.11403 l -0.19702,0.0114 -0.007,0.17321 c -0.005,0.12405 0.002,0.18045 0.0237,0.19872 0.0167,0.0141 0.13458,0.0284 0.26426,0.032 0.22754,0.006 0.23429,0.008 0.24164,0.061 0.004,0.0299 -0.006,0.0631 -0.0224,0.0738 -0.0316,0.0204 -0.5927,0.0247 -0.64081,0.005 z m 1.34495,0 c -0.0215,-0.009 -0.028,-0.15781 -0.028,-0.63635 v -0.62485 l 0.0582,-0.0149 c 0.10125,-0.0259 0.44295,0.005 0.532,0.0479 0.11609,0.056 0.178,0.15393 0.18993,0.30028 0.0125,0.15324 -0.0219,0.23904 -0.13521,0.33775 l -0.0886,0.0771 0.10572,0.22866 c 0.0581,0.12577 0.0997,0.24459 0.0924,0.26405 -0.018,0.0477 -0.11167,0.0449 -0.15434,-0.004 -0.0189,-0.022 -0.0718,-0.12714 -0.11751,-0.23377 -0.10474,-0.24448 -0.11352,-0.2547 -0.21172,-0.24632 l -0.0804,0.007 -0.007,0.22679 c -0.008,0.26925 -0.037,0.32015 -0.15605,0.27126 z m 0.52419,-0.72296 c 0.0737,-0.0872 0.0732,-0.23896 -10e-4,-0.32687 -0.0495,-0.0585 -0.0672,-0.064 -0.20734,-0.064 h -0.15325 l -0.007,0.20345 c -0.004,0.1119 -9.6e-4,0.21828 0.006,0.23641 0.01,0.0255 0.0457,0.0308 0.16086,0.0233 0.128,-0.008 0.15573,-0.0182 0.20145,-0.0723 z m -19.35358,-1.77374 c -0.04,-0.0412 -0.0411,-4.30772 -0.001,-4.34842 0.0432,-0.044 2.08519,-0.0376 2.29277,0.007 0.33013,0.0712 0.58215,0.26212 0.71719,0.54344 0.10276,0.21408 0.13276,0.42167 0.11751,0.81324 -0.0136,0.34862 -0.0552,0.49918 -0.18615,0.67377 -0.0421,0.0561 -0.0766,0.11043 -0.0766,0.12068 0,0.0102 0.0262,0.0435 0.0583,0.0739 0.0819,0.0777 0.15765,0.23906 0.18631,0.39679 0.0309,0.1699 0.0314,0.6612 8.4e-4,0.85584 -0.0634,0.40452 -0.33893,0.71307 -0.74978,0.83962 -0.15428,0.0475 -2.31509,0.0695 -2.35928,0.024 z m 2.2162,-0.69773 c 0.0361,-0.0217 0.0864,-0.0832 0.11183,-0.13661 0.0422,-0.0887 0.0456,-0.13081 0.0387,-0.48052 -0.009,-0.43988 -0.0244,-0.48796 -0.17356,-0.52883 -0.055,-0.0151 -0.34574,-0.0218 -0.77902,-0.018 l -0.69128,0.006 -0.006,0.56975 c -0.003,0.31337 -10e-4,0.58277 0.005,0.59867 0.009,0.0225 0.168,0.0289 0.71986,0.0289 0.63153,0 0.71611,-0.004 0.77453,-0.0394 z m 0.0352,-1.89804 c 0.0973,-0.0603 0.11878,-0.15453 0.11894,-0.52068 1.3e-4,-0.34018 -0.0197,-0.41641 -0.13341,-0.5138 l -0.0724,-0.062 -0.72083,0.006 -0.72083,0.006 -0.006,0.53549 c -0.003,0.29451 -10e-4,0.54852 0.005,0.56446 0.009,0.0226 0.16999,0.029 0.73455,0.0289 0.67716,0 0.72821,-0.003 0.79509,-0.0444 z m 2.48394,2.60804 c -0.17703,-0.0237 -0.32535,-0.0662 -0.44552,-0.12775 -0.25476,-0.13046 -0.45252,-0.40082 -0.50518,-0.69063 -0.0339,-0.18642 -0.0334,-2.58901 5.8e-4,-2.75322 0.0598,-0.28943 0.2647,-0.56352 0.51339,-0.68686 0.22841,-0.11328 0.36884,-0.1288 1.16524,-0.1288 0.78307,0 0.92527,0.0148 1.15072,0.12012 0.26026,0.12153 0.47699,0.40657 0.53036,0.69753 0.0321,0.17516 0.03,2.60992 -0.002,2.76676 -0.0774,0.37453 -0.3618,0.67159 -0.73973,0.77273 -0.0942,0.0252 -1.51259,0.0508 -1.66742,0.0301 z m 1.53411,-0.73507 c 0.042,-0.0229 0.0948,-0.0766 0.11734,-0.11938 0.0382,-0.0725 0.041,-0.16063 0.041,-1.32745 0,-1.37904 0.001,-1.36612 -0.13875,-1.45295 -0.0705,-0.0437 -0.11141,-0.046 -0.82514,-0.046 -0.69525,0 -0.75605,0.003 -0.81997,0.0428 -0.14835,0.092 -0.14604,0.0675 -0.13903,1.47862 0.006,1.18087 0.009,1.27651 0.0466,1.33258 0.0851,0.12758 0.118,0.13236 0.91271,0.13293 0.66368,5.3e-4 0.7357,-0.003 0.80524,-0.0412 z m 1.55369,0.72289 c -0.04,-0.0413 -0.0411,-4.30781 -10e-4,-4.34851 0.0345,-0.0351 2.04131,-0.0385 2.25953,-0.004 0.30273,0.048 0.60835,0.25964 0.74459,0.51554 0.10128,0.19024 0.12963,0.34748 0.12963,0.71903 0,0.46607 -0.0449,0.64877 -0.20521,0.83578 l -0.0647,0.0754 0.0785,0.0974 c 0.15971,0.1983 0.17839,0.27275 0.18743,0.74717 0.005,0.25761 -0.002,0.47343 -0.0168,0.54736 -0.0753,0.36849 -0.34448,0.66259 -0.71892,0.78541 -0.1096,0.0359 -0.24773,0.0414 -1.24408,0.0493 -0.88534,0.007 -1.12669,0.003 -1.14882,-0.0201 z m 2.2293,-0.7031 c 0.13224,-0.082 0.14475,-0.13723 0.13695,-0.60453 -0.008,-0.46836 -0.0154,-0.49197 -0.17285,-0.53646 -0.12116,-0.0342 -1.42069,-0.0304 -1.45479,0.004 -0.0292,0.0297 -0.0405,1.13714 -0.012,1.16618 0.008,0.008 0.33353,0.0152 0.72291,0.0151 0.66264,0 0.71256,-0.003 0.77973,-0.0446 z m 0.0678,-1.92283 0.0621,-0.0632 0.007,-0.38552 c 0.008,-0.43184 -0.006,-0.49127 -0.13704,-0.57236 -0.0672,-0.0417 -0.11711,-0.0445 -0.78107,-0.0446 -0.62617,0 -0.7109,0.004 -0.72292,0.036 -0.0191,0.0507 -0.0171,1.07032 0.002,1.0899 0.009,0.009 0.35143,0.0131 0.76166,0.01 l 0.74588,-0.007 0.0621,-0.0632 z m 1.49013,2.63229 c -0.0207,-0.0134 -0.0271,-0.0702 -0.0224,-0.19921 l 0.007,-0.18048 0.24779,-0.13683 c 0.13629,-0.0753 0.27499,-0.15504 0.30822,-0.17728 l 0.0604,-0.0404 v -1.43349 c 0,-1.29407 -0.003,-1.43655 -0.0364,-1.4648 -0.02,-0.0172 -0.15869,-0.0981 -0.30822,-0.1797 l -0.27186,-0.14839 -0.007,-0.18032 c -0.005,-0.12886 0.002,-0.18567 0.0224,-0.19906 0.0492,-0.0317 1.9096,-0.0241 1.94111,0.008 0.0293,0.0298 0.037,0.30886 0.01,0.3525 -0.009,0.0145 -0.14761,0.0966 -0.30787,0.18247 l -0.29139,0.15612 -0.006,1.46378 -0.006,1.46379 0.30838,0.16686 0.30838,0.16686 0.007,0.16745 c 0.004,0.10383 -0.003,0.17966 -0.0196,0.19956 -0.0218,0.0267 -0.18573,0.032 -0.97051,0.0318 -0.51938,-2.3e-4 -0.95739,-0.009 -0.97336,-0.0191 z m 2.66851,0.004 c -0.0221,-0.009 -0.028,-0.46758 -0.028,-2.18518 0,-1.96108 0.003,-2.17504 0.0355,-2.18753 0.0195,-0.008 0.1549,-0.0138 0.30089,-0.0138 0.24743,0 0.26974,0.004 0.32881,0.0546 0.0348,0.03 0.44667,0.46614 0.91517,0.96913 0.46849,0.50299 0.85937,0.91459 0.86861,0.91467 0.009,0 0.0168,-0.42371 0.0168,-0.94176 0,-0.70219 0.007,-0.94888 0.0269,-0.96928 0.0283,-0.0288 0.63077,-0.0405 0.69979,-0.0135 0.032,0.0125 0.0355,0.2264 0.0355,2.18699 0,1.96058 -0.003,2.17449 -0.0355,2.18698 -0.069,0.0269 -0.67145,0.0153 -0.69979,-0.0135 -0.0197,-0.02 -0.0269,-0.20158 -0.0269,-0.67451 v -0.64712 l -0.44871,-0.47535 c -0.24678,-0.26144 -0.62061,-0.65835 -0.83072,-0.88204 -0.21011,-0.22368 -0.39403,-0.40669 -0.40871,-0.40669 -0.0203,0 -0.0281,0.36717 -0.0325,1.5382 -0.005,1.19579 -0.012,1.5422 -0.0336,1.5562 -0.0301,0.0194 -0.63721,0.0226 -0.68353,0.004 z m 3.87796,0 c -0.0221,-0.009 -0.028,-0.46758 -0.028,-2.18518 0,-1.96108 0.004,-2.17504 0.0355,-2.18753 0.0539,-0.021 2.68389,-0.0159 2.71674,0.005 0.0216,0.0139 0.0271,0.0996 0.0224,0.34745 l -0.006,0.32894 -1.00872,0.0114 -1.00872,0.0114 v 0.55876 0.55876 l 0.77221,0.006 c 0.58354,0.004 0.77652,0.0129 0.78982,0.0342 0.01,0.0155 0.0176,0.16162 0.0176,0.32469 0,0.16306 -0.008,0.30917 -0.0176,0.32469 -0.0133,0.0213 -0.20628,0.0297 -0.78982,0.0342 l -0.77221,0.006 v 0.55876 0.55876 l 1.01432,0.006 1.01432,0.006 v 0.33943 c 0,0.28847 -0.005,0.3415 -0.0355,0.35327 -0.0424,0.0165 -2.67571,0.0153 -2.7161,-0.001 z m -8.41213,-5.5619 c -0.0559,-0.0175 -0.14308,-0.068 -0.19382,-0.1122 l -0.0923,-0.0803 -0.13077,0.0801 c -0.17561,0.10759 -0.27517,0.13133 -0.50436,0.12024 -0.16112,-0.008 -0.21776,-0.0216 -0.33952,-0.0825 -0.16684,-0.0836 -0.39266,-0.31115 -0.47051,-0.47418 -0.0263,-0.0551 -0.0601,-0.10024 -0.075,-0.10024 -0.0149,0 -0.10119,0.0428 -0.19168,0.0952 -0.26275,0.15203 -0.73196,0.37342 -0.92666,0.43725 -0.78584,0.25761 -1.25996,0.0328 -1.44961,-0.68736 -0.0669,-0.254 -0.0812,-0.86061 -0.0308,-1.30469 0.10872,-0.9582 0.43556,-2.24226 0.91965,-3.61308 0.0927,-0.26245 0.16851,-0.47985 0.16851,-0.48311 0,-0.003 -0.15258,-0.086 -0.33907,-0.18378 -0.18648,-0.0978 -0.36553,-0.20393 -0.39788,-0.23581 l -0.0588,-0.058 -0.33127,0.22754 c -0.31973,0.21961 -0.33621,0.22786 -0.47259,0.2367 -0.1108,0.007 -0.16026,-8.5e-4 -0.22912,-0.0372 -0.0504,-0.0266 -0.4426,-0.40882 -0.92102,-0.89757 -0.74815,-0.7643 -0.83592,-0.86166 -0.85973,-0.9536 -0.049,-0.18918 -0.0195,-0.27868 0.20043,-0.60809 0.16722,-0.25048 0.19363,-0.30174 0.16006,-0.31067 -0.0912,-0.0243 -0.58311,-0.92009 -0.79922,-1.45558 -0.22051,-0.54639 -0.45558,-1.37044 -0.40768,-1.42916 0.0132,-0.0161 0.02,-0.0327 0.0151,-0.0368 -0.005,-0.004 -0.15506,-0.0346 -0.33383,-0.0679 -0.36526,-0.0679 -0.46514,-0.11799 -0.55423,-0.27804 l -0.0503,-0.0903 -3.7e-4,-1.23816 c -3.5e-4,-1.17262 0.002,-1.24265 0.0423,-1.32278 0.0838,-0.16625 0.19075,-0.23003 0.46934,-0.27988 l 0.16455,-0.0294 0.0503,-0.11575 c 0.0541,-0.12453 0.18109,-0.25449 0.27106,-0.27746 0.037,-0.01 0.0556,-0.0301 0.0556,-0.0618 0,-0.0818 0.19846,-0.64743 0.34907,-0.99493 0.24257,-0.55968 0.72405,-1.39279 0.80494,-1.39279 0.0219,0 -0.0426,-0.11247 -0.17986,-0.31359 -0.11774,-0.17247 -0.23356,-0.35464 -0.25737,-0.40482 -0.0525,-0.11046 -0.0563,-0.25688 -0.01,-0.37133 0.0473,-0.11642 1.64497,-1.74884 1.77007,-1.80853 0.0493,-0.0235 0.11823,-0.043 0.15315,-0.0433 0.0489,-3.8e-4 0.10918,-0.0452 0.26207,-0.19487 0.21607,-0.21148 0.33937,-0.28329 0.48774,-0.28406 0.13716,-7.2e-4 0.19154,0.0286 0.66146,0.35698 l 0.42121,0.29432 0.37297,-0.19185 c 0.54385,-0.27975 1.27721,-0.57023 1.37436,-0.54438 0.0349,0.009 0.0457,-0.004 0.0576,-0.0718 0.11432,-0.64836 0.16832,-0.88265 0.22139,-0.96056 0.0872,-0.12796 0.2108,-0.18747 0.4231,-0.20364 l 0.18064,-0.0138 0.04,-0.11403 c 0.0536,-0.15258 0.10366,-0.21701 0.22171,-0.28508 l 0.0989,-0.0568 h 1.21046 1.21046 l 0.095,0.0553 c 0.17594,0.10252 0.19809,0.15908 0.31908,0.81437 0.0599,0.32445 0.11229,0.6141 0.11643,0.64367 0.007,0.0475 0.0324,0.0602 0.22047,0.10837 0.28589,0.0733 0.64868,0.19755 0.97509,0.33391 0.41086,0.17165 1.08717,0.51656 1.08717,0.55446 0,0.0181 0.007,0.0328 0.0149,0.0328 0.0159,0 0.28386,-0.17719 0.75846,-0.50148 0.16027,-0.10952 0.32369,-0.21596 0.36314,-0.23653 0.0904,-0.0472 0.27428,-0.0482 0.38268,-0.002 0.0883,0.0375 1.61411,1.56563 1.72341,1.72595 0.0624,0.0915 0.0893,0.24067 0.0661,0.36646 -0.009,0.0467 -0.15658,0.29073 -0.36921,0.60884 l -0.35483,0.53085 0.14604,0.24212 c 0.17697,0.2934 0.50732,0.97871 0.62242,1.29122 0.0462,0.12544 0.12647,0.37119 0.17839,0.54612 l 0.0944,0.31805 0.55929,0.10696 c 0.30762,0.0588 0.58979,0.12301 0.62707,0.14262 0.1118,0.0588 0.20255,0.18296 0.23094,0.31593 0.0182,0.0853 0.0238,0.46231 0.0187,1.2729 -0.007,1.14808 -0.007,1.15204 -0.0582,1.24896 -0.0751,0.14312 -0.19875,0.22415 -0.39241,0.25722 -0.22008,0.0376 -0.25449,0.0538 -0.27238,0.12853 -0.0235,0.098 -0.11318,0.22444 -0.1961,0.27642 -0.0563,0.0353 -0.48516,0.14146 -0.5714,0.14146 -0.007,0 -0.002,0.0136 0.0119,0.0303 0.0315,0.0386 -0.004,0.1668 -0.25645,0.92466 -0.19459,0.5844 -0.353,0.98861 -0.49139,1.2539 l -0.0755,0.14484 0.1076,0.15165 c 0.40965,0.57734 0.46519,0.70541 0.40453,0.93277 -0.0264,0.099 -0.098,0.17902 -0.82622,0.92418 -0.43852,0.44871 -0.83315,0.84111 -0.87695,0.87199 -0.0438,0.0309 -0.1339,0.0666 -0.20022,0.0794 -0.11037,0.0213 -0.1389,0.0414 -0.33712,0.23706 -0.18892,0.18651 -0.23076,0.21689 -0.32782,0.23807 -0.18544,0.0405 -0.26073,0.0126 -0.58606,-0.21683 -0.11907,-0.084 -0.20734,-0.13305 -0.20734,-0.11526 0,0.0384 -0.27445,0.20589 -0.67153,0.40981 -0.46585,0.23923 -1.14874,0.49971 -1.55799,0.59427 l -0.13329,0.0308 -0.0281,0.1549 c -0.054,0.29762 -0.19438,0.41996 -0.5097,0.44416 l -0.17716,0.0136 -0.0401,0.12542 c -0.0476,0.149 -0.17347,0.28062 -0.30332,0.31731 -0.0568,0.0161 -0.48659,0.0246 -1.24252,0.0247 l -1.15563,1.2e-4 -0.11798,-0.0598 c -0.18274,-0.0926 -0.21785,-0.16516 -0.30348,-0.62712 l -0.0731,-0.3946 -0.0765,-0.003 c -0.15767,-0.006 -0.9068,-0.25801 -1.3206,-0.44393 -0.12492,-0.0561 -0.19948,-0.0783 -0.21649,-0.0643 -0.0348,0.0285 -0.39441,0.95276 -0.57604,1.48038 -0.86838,2.52266 -0.936,4.09225 -0.1872,4.34529 0.29626,0.10012 0.98486,-0.0918 1.52892,-0.42617 0.12329,-0.0758 0.25289,-0.16137 0.28801,-0.19025 l 0.0639,-0.0525 -0.0302,-0.13418 c -0.0431,-0.19142 -0.036,-0.9258 0.0123,-1.26998 0.12713,-0.90559 0.45323,-1.45027 0.86945,-1.45226 0.13311,-6.3e-4 0.19402,0.0233 0.29972,0.11771 0.11899,0.1063 0.1709,0.24008 0.18376,0.47372 0.0193,0.35029 -0.11801,0.87938 -0.38227,1.47312 -0.11577,0.26012 -0.33397,0.68163 -0.37665,0.72762 -0.0353,0.0381 -0.022,0.0837 0.0565,0.19241 0.15392,0.21333 0.39532,0.33329 0.56593,0.28122 0.0473,-0.0144 0.11821,-0.0548 0.15756,-0.0897 0.0685,-0.0607 0.0726,-0.0743 0.0964,-0.31435 0.0563,-0.56948 0.32013,-1.06501 0.68599,-1.28857 0.11683,-0.0714 0.14731,-0.0798 0.28842,-0.0791 0.187,7.9e-4 0.30678,0.0547 0.41307,0.18591 l 0.0691,0.0853 0.0732,-0.0705 c 0.15525,-0.14952 0.27252,-0.16278 0.38924,-0.044 0.11022,0.11213 0.10356,0.19285 -0.0415,0.50313 l -0.11768,0.25177 0.002,0.28508 c 10e-4,0.15679 0.0147,0.33126 0.03,0.38771 0.0308,0.11373 0.10146,0.20526 0.15838,0.20526 0.0713,0 0.24644,-0.14172 0.3615,-0.29258 0.15091,-0.19786 0.1904,-0.23197 0.26857,-0.23197 0.10037,0 0.16217,0.0773 0.14796,0.18508 -0.0231,0.17538 -0.38628,0.59359 -0.61373,0.70677 -0.155,0.0771 -0.41443,0.0884 -0.53957,0.0235 -0.10626,-0.0552 -0.24107,-0.20727 -0.27949,-0.31538 -0.0149,-0.0418 -0.0352,-0.0733 -0.0452,-0.0699 -0.01,0.003 -0.0561,0.0572 -0.10239,0.11952 -0.21027,0.28306 -0.4645,0.38408 -0.7451,0.29608 z m 0.42918,-0.44961 c 0.0386,-0.0533 0.12087,-0.20229 0.1829,-0.33106 0.0993,-0.20626 0.10971,-0.24101 0.0869,-0.29186 -0.0364,-0.0813 -0.0324,-0.16196 0.019,-0.38627 0.0696,-0.30354 0.0567,-0.37631 -0.0664,-0.37631 -0.18379,0 -0.39006,0.41112 -0.44994,0.89678 -0.0613,0.49733 0.0493,0.73501 0.22748,0.48872 z m -1.72068,-1.22711 c 0.18063,-0.50922 0.28823,-1.00031 0.29206,-1.3329 0.002,-0.21848 5.5e-4,-0.22836 -0.0466,-0.23519 -0.0693,-0.01 -0.13185,0.12425 -0.19841,0.42611 -0.10282,0.46633 -0.19589,1.43111 -0.13176,1.36586 0.005,-0.005 0.0427,-0.10542 0.0848,-0.22388 z m 4.81819,-4.47678 c 0.26141,-0.11126 0.60269,-0.28594 0.88081,-0.45084 0.12443,-0.0738 0.24043,-0.13421 0.25778,-0.1343 0.0174,-9e-5 0.002,-0.0203 -0.0352,-0.0449 -0.0593,-0.0398 -0.0689,-0.0408 -0.0864,-0.009 -0.041,0.0745 -1.73287,0.87515 -1.84929,0.87515 -0.0144,0 -0.0262,0.019 -0.0262,0.0423 0,0.0377 0.0356,0.0295 0.33063,-0.076 0.18185,-0.0651 0.41939,-0.15609 0.52787,-0.20226 z m -4.96948,0.19663 c -0.007,-0.007 -0.0262,-0.001 -0.0431,0.0131 -0.0234,0.0198 -0.1141,-4.8e-4 -0.38721,-0.0866 -0.19614,-0.0618 -0.42219,-0.1378 -0.50233,-0.16886 -0.28211,-0.10933 -0.28526,-0.1103 -0.23881,-0.0735 0.0911,0.0721 0.60072,0.26315 0.85525,0.32062 0.14795,0.0334 0.27908,0.0709 0.29141,0.0833 0.0149,0.015 0.0249,0.006 0.0298,-0.0264 0.004,-0.0269 0.002,-0.0547 -0.005,-0.0617 z m -0.0448,-0.24753 c -0.007,-0.0198 -0.0136,-0.0508 -0.0136,-0.0688 0,-0.0231 -0.0157,-0.0288 -0.0532,-0.0192 -0.0764,0.0195 -0.59486,-0.18183 -1.06329,-0.41288 -0.40382,-0.19917 -0.75712,-0.40384 -0.77118,-0.44675 -0.005,-0.0149 -0.0412,-0.002 -0.0902,0.0317 l -0.082,0.0566 0.41912,0.21724 c 0.46743,0.24228 0.91233,0.42917 1.31576,0.5527 0.14794,0.0453 0.27857,0.0921 0.29028,0.10392 0.0336,0.034 0.0633,0.0251 0.0484,-0.0145 z m 4.40654,-0.2153 c 0.44235,-0.11823 0.94472,-0.31191 1.16662,-0.44977 0.083,-0.0516 0.17219,-0.10062 0.19822,-0.10902 0.0422,-0.0136 0.035,-0.0238 -0.066,-0.0929 -0.11964,-0.082 -0.16349,-0.096 -0.15427,-0.0492 0.007,0.0365 -0.7762,0.43615 -1.05916,0.54031 -0.11712,0.0431 -0.21465,0.0791 -0.21673,0.0799 -0.002,8.3e-4 -0.0112,0.0314 -0.0202,0.0679 -0.0136,0.0551 -0.0103,0.064 0.0192,0.0525 0.0196,-0.008 0.0791,-0.0255 0.13225,-0.0397 z m -4.49584,-0.26719 c -0.006,-0.022 -0.0222,-0.10102 -0.0352,-0.1757 -0.0131,-0.0747 -0.0313,-0.14269 -0.0405,-0.15114 -0.009,-0.008 -0.0722,-0.0333 -0.14001,-0.0552 -0.21685,-0.0701 -0.63274,-0.24199 -0.83455,-0.34489 -0.10763,-0.0549 -0.21615,-0.0998 -0.24116,-0.0998 -0.0515,0 -0.21599,0.1134 -0.21508,0.14824 0.002,0.0612 0.77091,0.43663 1.23758,0.60402 0.1094,0.0392 0.20849,0.081 0.22021,0.0929 0.0344,0.0348 0.0611,0.0247 0.0487,-0.0184 z m 4.65347,-0.20846 c 0.0952,-0.0384 0.30433,-0.13683 0.46481,-0.21865 0.16048,-0.0818 0.30705,-0.14876 0.32572,-0.14876 0.0478,0 0.0422,-0.0294 -0.0121,-0.0639 -0.0394,-0.025 -0.0516,-0.0229 -0.0841,0.0143 -0.0438,0.0502 -0.37644,0.19983 -0.69384,0.31206 -0.21136,0.0747 -0.21861,0.0796 -0.22571,0.15111 -0.006,0.0593 -0.001,0.0689 0.0224,0.0488 0.0164,-0.0138 0.10761,-0.0565 0.20278,-0.095 z m 0.21563,-0.46196 c 0.13979,-0.0609 0.26899,-0.11071 0.28712,-0.11071 0.0182,0 0.0262,-0.0112 0.0178,-0.0249 -0.0221,-0.0364 -0.0807,-0.0172 -0.37633,0.12347 -0.42079,0.20023 -0.37733,0.20764 0.0714,0.0122 z m -9.32329,-2.39048 c 0.0652,-0.0933 0.0677,-0.10304 0.0299,-0.11727 -0.0494,-0.0186 -0.38198,-0.67021 -0.53422,-1.04675 -0.16337,-0.40407 -0.27975,-0.78044 -0.25188,-0.81461 0.025,-0.0307 0.016,-0.0362 -0.0993,-0.062 -0.0676,-0.0151 -0.0725,-0.009 -0.0394,0.0502 0.0122,0.0218 0.0534,0.16789 0.0914,0.32468 0.13246,0.54604 0.3523,1.13718 0.57068,1.53453 0.0675,0.12273 0.12264,0.23511 0.12264,0.24973 0,0.0329 0.0176,0.014 0.11021,-0.1185 z m -0.95209,-0.60667 c -0.20227,-0.52348 -0.43222,-1.36746 -0.40388,-1.48235 0.011,-0.0445 0.002,-0.052 -0.0714,-0.0614 -0.10079,-0.0128 -0.10478,-0.0105 -0.0745,0.0434 0.013,0.0232 0.0448,0.12937 0.0706,0.23599 0.0624,0.25784 0.18592,0.64561 0.29069,0.91226 0.11426,0.2908 0.24502,0.57852 0.25726,0.56607 0.005,-0.006 -0.0255,-0.10185 -0.0688,-0.21397 z m 1.30382,0.0869 c 0.0474,-0.0635 0.0376,-0.10332 -0.0719,-0.29386 -0.0567,-0.0987 -0.0971,-0.15885 -0.0897,-0.13376 0.01,0.0336 -0.002,0.0276 -0.0436,-0.0228 l -0.057,-0.0684 0.0545,0.14977 c 0.03,0.0824 0.0758,0.19229 0.10188,0.24426 0.0261,0.052 0.0474,0.11029 0.0474,0.12961 0,0.0462 0.0217,0.0445 0.0585,-0.005 z m 13.09971,-0.006 c 0,-0.0125 -0.004,-0.0228 -0.01,-0.0228 -0.005,0 -0.0161,0.0103 -0.0237,0.0228 -0.008,0.0125 -0.003,0.0228 0.01,0.0228 0.0131,0 0.0237,-0.0103 0.0237,-0.0228 z m 0.40435,-1.01489 c 0.0761,-0.23833 0.15281,-0.46294 0.17036,-0.49913 0.0175,-0.0362 0.0285,-0.0692 0.0244,-0.0734 -0.004,-0.004 -0.0439,-0.002 -0.0885,0.006 -0.0761,0.0126 -0.0804,0.0177 -0.0703,0.0848 0.0133,0.0882 -0.12805,0.60269 -0.28099,1.02293 -0.15266,0.41947 -0.15349,0.42718 -0.0154,0.14322 0.0672,-0.13819 0.18417,-0.44549 0.26043,-0.68419 z m -0.41336,0.22807 c 0.0426,-0.12544 0.10342,-0.32557 0.13512,-0.44473 0.0317,-0.11917 0.0667,-0.22641 0.0778,-0.23833 0.0392,-0.042 0.0193,-0.0551 -0.0639,-0.0421 -0.10109,0.0159 -0.11089,0.0228 -0.0788,0.0555 0.018,0.0183 5e-4,0.097 -0.0647,0.2904 -0.0915,0.27107 -0.25747,0.68128 -0.2915,0.72023 -0.0288,0.033 -0.0238,0.0487 0.0398,0.12565 l 0.0587,0.071 0.0549,-0.15477 c 0.0302,-0.0851 0.0898,-0.2574 0.13244,-0.38284 z m -5.93073,0.38907 c 0.37592,-0.0509 0.73394,-0.15643 1.005,-0.29618 0.14604,-0.0753 0.50193,-0.4585 0.68342,-0.73586 0.24952,-0.38135 0.41298,-0.77928 0.51245,-1.24761 0.0709,-0.33357 0.0709,-1.01675 0,-1.35033 -0.22448,-1.05682 -0.87,-1.92234 -1.78793,-2.39727 -0.89949,-0.46539 -1.86591,-0.51308 -2.80926,-0.13863 -0.20673,0.0821 -0.25145,0.11048 -0.40093,0.25481 -0.50433,0.48699 -0.83799,1.12223 -0.98377,1.87295 -0.0552,0.28442 -0.0554,0.92283 -3.2e-4,1.20874 0.20468,1.06249 0.81231,1.91613 1.74099,2.44592 0.57636,0.3288 1.35862,0.47582 2.04034,0.38346 z m -7.9418,-1.00883 c 0.004,-0.0133 -0.0177,-0.0292 -0.049,-0.0353 -0.0621,-0.0121 -0.0722,0.004 -0.0298,0.0467 0.0303,0.0308 0.0667,0.0255 0.0788,-0.0114 z m -0.8142,-4.07239 c 0.0846,-0.31278 0.15021,-0.52017 0.25003,-0.79092 0.0667,-0.181 0.118,-0.33249 0.11391,-0.33664 -0.0148,-0.0151 -0.21454,0.44494 -0.32372,0.74555 -0.1547,0.42592 -0.15114,0.41052 -0.095,0.41052 0.0259,0 0.0505,-0.0128 0.0548,-0.0285 z m 0.81143,-0.14193 c 0.0582,-0.0119 0.0742,-0.03 0.0975,-0.11003 0.12117,-0.41637 0.43234,-1.15634 0.48626,-1.15634 0.0408,0 0.0384,-0.0155 -0.0164,-0.10564 -0.0487,-0.0801 -0.0804,-0.0984 -0.0804,-0.0463 0,0.0168 -0.0666,0.15277 -0.14793,0.30218 -0.16808,0.30869 -0.35576,0.72122 -0.43408,0.95417 -0.0635,0.18893 -0.0645,0.20189 -0.0139,0.1874 0.0216,-0.006 0.0706,-0.0176 0.10885,-0.0254 z m 14.84017,-0.0688 c -0.007,-0.0187 -0.0395,-0.12389 -0.072,-0.23376 -0.0869,-0.29326 -0.28737,-0.79949 -0.44029,-1.11204 -0.15037,-0.30733 -0.37833,-0.7189 -0.39739,-0.71747 -0.007,5.3e-4 -0.0388,0.0428 -0.0709,0.0939 l -0.0583,0.093 0.0726,0.10982 c 0.17911,0.2708 0.81739,1.63311 0.81739,1.7446 0,0.0268 0.0419,0.0437 0.13129,0.0528 0.0182,0.002 0.0253,-0.0105 0.0176,-0.0309 z m -0.66446,-0.11311 c 0,-0.0218 -0.17501,-0.41748 -0.23254,-0.52569 -0.0737,-0.1386 -0.0741,-0.1403 0.0625,0.23409 0.0658,0.1803 0.12225,0.30186 0.1401,0.30186 0.0164,0 0.0299,-0.005 0.0299,-0.0103 z m -13.47141,-0.56599 c 0.0915,-0.1995 0.10821,-0.25405 0.0889,-0.29079 -0.0278,-0.0528 -0.067,-0.0599 -0.067,-0.012 0,0.0182 -0.04,0.12558 -0.0888,0.23851 -0.0759,0.17547 -0.11929,0.3124 -0.17049,0.53794 -0.0121,0.0534 0.0791,-0.12856 0.23744,-0.47363 z m 3.64484,-3.63381 c 0.0724,-0.0326 0.21742,-0.0885 0.32221,-0.12433 0.1184,-0.0404 0.19332,-0.0786 0.19787,-0.10084 0.007,-0.0322 -9e-5,-0.0324 -0.0672,-0.002 -0.041,0.0188 -0.17546,0.0716 -0.29875,0.11741 -0.12329,0.0458 -0.24746,0.0922 -0.27594,0.10317 -0.0285,0.0109 -0.0455,0.0301 -0.0379,0.0427 0.018,0.0296 0.008,0.0319 0.15975,-0.0364 z m 6.60988,-0.0776 c 0.008,-0.0125 0.003,-0.0228 -0.01,-0.0228 -0.0131,0 -0.0237,0.0103 -0.0237,0.0228 0,0.0125 0.004,0.0228 0.01,0.0228 0.005,0 0.0161,-0.0103 0.0237,-0.0228 z m 0.005,-0.44559 c -0.43282,-0.22512 -0.81022,-0.38571 -1.22504,-0.52124 -0.37477,-0.12245 -0.45859,-0.14228 -0.44661,-0.10569 0.005,0.0148 0.10946,0.0605 0.23242,0.10145 0.57862,0.19269 1.62457,0.70964 1.62457,0.80294 0,0.0227 0.0259,0.0145 0.0892,-0.0281 l 0.0892,-0.0601 z m -7.2668,0.15163 c 0.083,-0.079 1.22329,-0.46167 1.2384,-0.41557 0.0154,0.0471 0.0494,0.0257 0.0494,-0.0312 0,-0.0498 -0.006,-0.054 -0.0504,-0.0349 -0.0277,0.0119 -0.17819,0.0529 -0.33434,0.0911 -0.15615,0.0382 -0.42851,0.11979 -0.60523,0.18125 -0.47009,0.16347 -0.45424,0.15611 -0.42189,0.19576 0.0308,0.0378 0.0917,0.0444 0.1241,0.0136 z m 6.36501,-0.17483 c -0.12528,-0.0618 -0.67245,-0.28383 -0.69956,-0.28383 -0.004,0 -0.006,0.018 -0.005,0.0399 7.6e-4,0.0312 0.0901,0.0705 0.40909,0.17985 0.22445,0.077 0.41818,0.1403 0.43051,0.14073 0.0123,4.3e-4 -0.0482,-0.0341 -0.1345,-0.0767 z"
       style="fill:#000000;stroke:none;stroke-width:0.0226104" />
    <g
       transform="translate(-5.2916669,8.9958338)"
       id="g1550">
      <text
         id="text865"
         y="281.05316"
         x="12.563755"
         style="font-style:normal;font-weight:normal;font-size:7.05556px;line-height:1.25;font-family:sans-serif;letter-spacing:0px;word-spacing:0px;fill:#000000;fill-opacity:1;stroke:none;stroke-width:0.264583"
         xml:space="preserve"><tspan
           style="font-size:7.05556px;stroke-width:0.264583"
           y="281.05316"
           x="12.563755"
           id="tspan863"
           sodipodi:role="line">Garatronic</tspan></text>
      <g
         id="g1500"
         transform="matrix(0.00592549,0,0,0.00592549,21.385194,257.00861)">
        <g
           id="g1357"
           style="fill:#000000;fill-opacity:1;stroke:#000000;stroke-linecap:round;stroke-linejoin:round;stroke-opacity:1" />
        <g
           id="g1359"
           style="fill:#000000;fill-opacity:0;stroke:#000000;stroke-width:-0.000393701;stroke-linecap:round;stroke-linejoin:round;stroke-opacity:1" />
        <g
           id="g1445"
           style="fill:#000000;fill-opacity:0;stroke:#000000;stroke-width:137.795;stroke-linecap:round;stroke-linejoin:round;stroke-opacity:1">
          <path
             id="path1361"
             d="M 1840.93,2037.31 A 811.635,811.635 0 0 0 2431.1,1446.85" />
          <path
             id="path1363"
             d="M 1386.65,480.145 A 811.635,811.635 0 0 0 856.3,1053.15" />
          <path
             id="path1365"
             d="M 68,2234 H 462" />
          <path
             id="path1367"
             d="m 68,1840 v 394" />
          <path
             id="path1369"
             d="M 462,1840 H 68" />
          <path
             id="path1371"
             d="M 462,1446 H 68" />
          <path
             id="path1373"
             d="m 68,1053 v 393" />
          <path
             id="path1375"
             d="M 462,1053 H 68" />
          <path
             id="path1377"
             d="M 68,659 H 462" />
          <path
             id="path1379"
             d="M 68,265 V 659" />
          <path
             id="path1381"
             d="M 462,265 H 68" />
          <path
             id="path1383"
             d="M 3218,2234 H 2824" />
          <path
             id="path1385"
             d="m 3218,1840 v 394" />
          <path
             id="path1387"
             d="m 2824,1840 h 394" />
          <path
             id="path1389"
             d="M 3218,1446 H 2824" />
          <path
             id="path1391"
             d="m 3218,1053 v 393" />
          <path
             id="path1393"
             d="m 2824,1053 h 394" />
          <path
             id="path1395"
             d="M 3218,659 H 2824" />
          <path
             id="path1397"
             d="M 3218,265 V 659" />
          <path
             id="path1399"
             d="m 2824,265 h 394" />
          <path
             id="path1401"
             d="M 2824,68 H 462" />
          <path
             id="path1403"
             d="M 2824,2431 V 68" />
          <path
             id="path1405"
             d="M 462,2431 H 2824" />
          <path
             id="path1407"
             d="M 462,68 V 2431" />
          <path
             id="path1409"
             d="m 2332,954 v 197" />
          <path
             id="path1411"
             d="m 2234,856 98,98" />
          <path
             id="path1413"
             d="M 2037,1053 2234,856" />
          <path
             id="path1415"
             d="m 1840,1053 h 197" />
          <path
             id="path1417"
             d="m 1840,856 v 197" />
          <path
             id="path1419"
             d="M 2037,659 1840,856" />
          <path
             id="path1421"
             d="m 1938,561 99,98" />
          <path
             id="path1423"
             d="m 1742,561 h 196" />
          <path
             id="path1425"
             d="M 1545,757 1742,561" />
          <path
             id="path1427"
             d="M 1545,1053 V 757" />
          <path
             id="path1429"
             d="m 1053,1545 492,-492" />
          <path
             id="path1431"
             d="M 1053,1742 V 1545" />
          <path
             id="path1433"
             d="m 1151,1840 -98,-98" />
          <path
             id="path1435"
             d="M 1348,1840 H 1151" />
          <path
             id="path1437"
             d="m 1840,1348 -492,492" />
          <path
             id="path1439"
             d="M 2135,1348 H 1840" />
          <path
             id="path1441"
             d="m 2332,1151 -197,197" />
          <circle
             id="circle1443"
             r="989.16101"
             cy="1250"
             cx="1643.7" />
        </g>
      </g>
    </g>
  </g>
</svg>
